{
  "prepare_queue": {
    "installed": [],
    "uninstalled": []
  },
  "config_munge": {
    "files": {}
  },
  "installed_plugins": {
    "cordova-plugin-splashscreen": {
      "PACKAGE_NAME": "io.app.papuabarat"
    },
    "cordova-plugin-statusbar": {
      "PACKAGE_NAME": "io.app.papuabarat"
    },
    "cordova-plugin-whitelist": {
      "PACKAGE_NAME": "io.app.papuabarat"
    }
  },
  "dependent_plugins": {}
}
